\relax 
\@writefile{toc}{\contentsline {section}{\numberline {1}Wczytywanie danych}{1}\protected@file@percent }
\@writefile{toc}{\contentsline {section}{\numberline {2}Obliczenia}{1}\protected@file@percent }
\@writefile{toc}{\contentsline {section}{\numberline {3}Prezentacja wynik\IeC {\'o}w}{1}\protected@file@percent }
\@writefile{lot}{\contentsline {table}{\numberline {1}{\ignorespaces Cz\IeC {\k e}sto\IeC {\'s}ci atrybut\IeC {\'o}w}}{1}\protected@file@percent }
\@writefile{toc}{\contentsline {section}{\numberline {4}Wnioski}{1}\protected@file@percent }
\@writefile{lof}{\contentsline {figure}{\numberline {1}{\ignorespaces Rysunek wykorzystuj\IeC {\k a}cy komend\IeC {\k e} {\tt  hist}}}{2}\protected@file@percent }
